<?xml version="1.0" encoding="UTF-8"?>
<svg width="17px" height="16px" viewBox="0 0 17 16" version="1.1" xmlns="http://www.w3.org/2000/svg" xmlns:xlink="http://www.w3.org/1999/xlink">
    <!-- Generator: Sketch 49.1 (51147) - http://www.bohemiancoding.com/sketch -->
    <title>Close</title>
    <desc>Created with Sketch.</desc>
    <defs></defs>
    <g id="UI" stroke="none" stroke-width="1" fill="none" fill-rule="evenodd">
        <g id="ePos_Chart" transform="translate(-973.000000, -38.000000)" fill="currentColor">
            <g id="Header" transform="translate(30.000000, 26.000000)">
                <g id="Close" transform="translate(938.000000, 12.000000)">
                    <g transform="translate(5.000000, 0.000000)">
                        <rect id="Rectangle-2" transform="translate(8.250000, 8.000000) rotate(45.000000) translate(-8.250000, -8.000000) " x="7" y="-2" width="2.5" height="20"></rect>
                        <rect id="Rectangle-2-Copy" transform="translate(8.250000, 8.000000) rotate(-45.000000) translate(-8.250000, -8.000000) " x="7" y="-2" width="2.5" height="20"></rect>
                    </g>
                </g>
            </g>
        </g>
    </g>
</svg>