<?xml version="1.0" encoding="UTF-8"?>
<svg width="20px" height="21px" viewBox="0 0 20 21" version="1.1" xmlns="http://www.w3.org/2000/svg" xmlns:xlink="http://www.w3.org/1999/xlink">
    <!-- Generator: Sketch 49 (51002) - http://www.bohemiancoding.com/sketch -->
    <title>ic_customer</title>
    <desc>Created with Sketch.</desc>
    <defs></defs>
    <g id="UI" stroke="none" stroke-width="1" fill="none" fill-rule="evenodd">
        <g id="ePos_Chart" transform="translate(-852.000000, -46.000000)" fill="currentColor">
            <g id="Header" transform="translate(30.000000, 36.000000)">
                <g id="Customer" transform="translate(802.000000, 0.000000)">
                    <path d="M39.0218179,30.0761671 C38.4816748,30.0761671 38.0434257,29.6351092 38.0434257,29.0915043 L38.0434257,27.8042749 C38.0434257,26.2413315 36.7795204,24.969537 35.2267403,24.969537 L24.7738899,24.969537 C23.2208998,24.969537 21.9567844,26.2413315 21.9567844,27.8042749 L21.9567844,29.0915043 C21.9567844,29.6351092 21.5185352,30.0761671 20.9786023,30.0761671 C20.4382491,30.0761671 20,29.6351092 20,29.0915043 L20,27.8042749 C20,25.1553903 22.1418742,23 24.7738899,23 L35.2267403,23 C37.8587561,23 40,25.1553903 40,27.8042749 L40,29.0915043 C40,29.6351092 39.5617509,30.0761671 39.0218179,30.0761671 Z M30,10 C33.3136878,10 36,12.68636 36,16.0001068 C36,19.31364 33.3136878,22 30,22 C26.6863122,22 24,19.31364 24,16.0001068 C24,12.68636 26.6863122,10 30,10 Z M30.0001065,12 C27.7945537,12 26,13.7943408 26,16.0001065 C26,18.2056592 27.7945537,20 30.0001065,20 C32.2056592,20 34,18.2056592 34,16.0001065 C34,13.7943408 32.2056592,12 30.0001065,12 Z" id="ic_customer"></path>
                </g>
            </g>
        </g>
    </g>
</svg>