<?xml version="1.0" encoding="UTF-8"?>
<svg width="15px" height="15px" viewBox="0 0 15 15" version="1.1" xmlns="http://www.w3.org/2000/svg" xmlns:xlink="http://www.w3.org/1999/xlink">
    <!-- Generator: Sketch 49.1 (51147) - http://www.bohemiancoding.com/sketch -->
    <title>Close Copy</title>
    <desc>Created with Sketch.</desc>
    <defs></defs>
    <g id="UI" stroke="none" stroke-width="1" fill="none" fill-rule="evenodd">
        <g id="ePos_ProductSummary_complete" transform="translate(-35.000000, -385.000000)" fill="currentColor" fill-rule="nonzero">
            <g id="Right" transform="translate(0.000000, 2.000000)">
                <g id="Plan-information" transform="translate(0.000000, 316.000000)">
                    <g id="Key-Benefits">
                        <g id="Stacked-Group-2" transform="translate(0.000000, 35.000000)">
                            <g id="benefit-1">
                                <path d="M42.3116763,38.133165 L46.2007636,34.2440777 C46.5262005,33.9186408 47.053838,33.9186408 47.3792749,34.2440777 C47.7047118,34.5695146 47.7047118,35.0971521 47.3792749,35.422589 L43.4901876,39.3116763 L47.3792749,43.2007636 C47.7047118,43.5262005 47.7047118,44.053838 47.3792749,44.3792749 C47.053838,44.7047118 46.5262005,44.7047118 46.2007636,44.3792749 L42.3116763,40.4901876 L38.422589,44.3792749 C38.0971521,44.7047118 37.5695146,44.7047118 37.2440777,44.3792749 C36.9186408,44.053838 36.9186408,43.5262005 37.2440777,43.2007636 L41.133165,39.3116763 L37.2440777,35.422589 C36.9186408,35.0971521 36.9186408,34.5695146 37.2440777,34.2440777 C37.5695146,33.9186408 38.0971521,33.9186408 38.422589,34.2440777 L42.3116763,38.133165 Z" id="Close-Copy" transform="translate(42.311676, 39.311676) rotate(45.000000) translate(-42.311676, -39.311676) "></path>
                            </g>
                        </g>
                    </g>
                </g>
            </g>
        </g>
    </g>
</svg>